country_name_short,country_name,election_type,election_date,vote_share,seats,seats_total,party_name_short,party_name,party_name_english,left_right,country_id,election_id,previous_parliament_election_id,previous_cabinet_id,party_id
DEU,Germany,parliament,1949-08-14,29.2,131,402,SPD,Sozialdemokratische Partei Deutschlands,Social Democratic Party of Germany,3.6451,54,581,NA,NA,558
DEU,Germany,parliament,1949-08-14,25.2,115,402,CDU,Christlich Demokratische Union,Christian Democratic Union,6.2503,54,581,NA,NA,808
DEU,Germany,parliament,1949-08-14,11.9,52,402,FDP,Freie Demokratische Partei,Free Democratic Party,5.9233,54,581,NA,NA,543
DEU,Germany,parliament,1949-08-14,5.8,24,402,CSU,Christlich Soziale Union,Christian Social Union,7.2871,54,581,NA,NA,1180
DEU,Germany,parliament,1953-09-06,36.4,191,487,CDU,Christlich Demokratische Union,Christian Democratic Union,6.2503,54,103,581,147,808
DEU,Germany,parliament,1953-09-06,28.8,151,487,SPD,Sozialdemokratische Partei Deutschlands,Social Democratic Party of Germany,3.6451,54,103,581,147,558
DEU,Germany,parliament,1953-09-06,8.8,52,487,CSU,Christlich Soziale Union,Christian Social Union,7.2871,54,103,581,147,1180
DEU,Germany,parliament,1953-09-06,9.5,48,487,FDP,Freie Demokratische Partei,Free Democratic Party,5.9233,54,103,581,147,543
DEU,Germany,parliament,1957-09-15,39.7,217,497,CDU,Christlich Demokratische Union,Christian Democratic Union,6.2503,54,331,103,633,808
DEU,Germany,parliament,1957-09-15,31.8,169,497,SPD,Sozialdemokratische Partei Deutschlands,Social Democratic Party of Germany,3.6451,54,331,103,633,558
DEU,Germany,parliament,1957-09-15,10.5,53,497,CSU,Christlich Soziale Union,Christian Social Union,7.2871,54,331,103,633,1180
DEU,Germany,parliament,1957-09-15,7.7,41,497,FDP,Freie Demokratische Partei,Free Democratic Party,5.9233,54,331,103,633,543
DEU,Germany,parliament,1961-09-17,35.8,192,499,CDU,Christlich Demokratische Union,Christian Democratic Union,6.2503,54,381,331,906,808
DEU,Germany,parliament,1961-09-17,36.2,190,499,SPD,Sozialdemokratische Partei Deutschlands,Social Democratic Party of Germany,3.6451,54,381,331,906,558
DEU,Germany,parliament,1961-09-17,12.8,67,499,FDP,Freie Demokratische Partei,Free Democratic Party,5.9233,54,381,331,906,543
DEU,Germany,parliament,1961-09-17,9.6,50,499,CSU,Christlich Soziale Union,Christian Social Union,7.2871,54,381,331,906,1180
DEU,Germany,parliament,1965-09-19,39.3,202,496,SPD,Sozialdemokratische Partei Deutschlands,Social Democratic Party of Germany,3.6451,54,250,381,31,558
DEU,Germany,parliament,1965-09-19,38.2,196,496,CDU,Christlich Demokratische Union,Christian Democratic Union,6.2503,54,250,381,31,808
DEU,Germany,parliament,1965-09-19,9.5,49,496,FDP,Freie Demokratische Partei,Free Democratic Party,5.9233,54,250,381,31,543
DEU,Germany,parliament,1965-09-19,9.6,49,496,CSU,Christlich Soziale Union,Christian Social Union,7.2871,54,250,381,31,1180
DEU,Germany,parliament,1969-09-28,42.7,224,496,SPD,Sozialdemokratische Partei Deutschlands,Social Democratic Party of Germany,3.6451,54,447,250,170,558
DEU,Germany,parliament,1969-09-28,36.6,193,496,CDU,Christlich Demokratische Union,Christian Democratic Union,6.2503,54,447,250,170,808
DEU,Germany,parliament,1969-09-28,9.5,49,496,CSU,Christlich Soziale Union,Christian Social Union,7.2871,54,447,250,170,1180
DEU,Germany,parliament,1969-09-28,5.8,30,496,FDP,Freie Demokratische Partei,Free Democratic Party,5.9233,54,447,250,170,543
DEU,Germany,parliament,1972-11-19,45.8,230,496,SPD,Sozialdemokratische Partei Deutschlands,Social Democratic Party of Germany,3.6451,54,95,447,358,558
DEU,Germany,parliament,1972-11-19,35.2,177,496,CDU,Christlich Demokratische Union,Christian Democratic Union,6.2503,54,95,447,358,808
DEU,Germany,parliament,1972-11-19,9.7,48,496,CSU,Christlich Soziale Union,Christian Social Union,7.2871,54,95,447,358,1180
DEU,Germany,parliament,1972-11-19,8.4,41,496,FDP,Freie Demokratische Partei,Free Democratic Party,5.9233,54,95,447,358,543
DEU,Germany,parliament,1976-10-03,42.6,214,496,SPD,Sozialdemokratische Partei Deutschlands,Social Democratic Party of Germany,3.6451,54,163,95,252,558
DEU,Germany,parliament,1976-10-03,38.1,190,496,CDU,Christlich Demokratische Union,Christian Democratic Union,6.2503,54,163,95,252,808
DEU,Germany,parliament,1976-10-03,10.6,53,496,CSU,Christlich Soziale Union,Christian Social Union,7.2871,54,163,95,252,1180
DEU,Germany,parliament,1976-10-03,7.9,39,496,FDP,Freie Demokratische Partei,Free Democratic Party,5.9233,54,163,95,252,543
DEU,Germany,ep,1979-06-10,40.8,35,81,SPD,Sozialdemokratische Partei Deutschlands,Social Democratic Party of Germany,3.6451,54,361,163,459,558
DEU,Germany,ep,1979-06-10,39.1,34,81,CDU,Christlich Demokratische Union,Christian Democratic Union,6.2503,54,361,163,459,808
DEU,Germany,ep,1979-06-10,10.1,8,81,CSU,Christlich Soziale Union,Christian Social Union,7.2871,54,361,163,459,1180
DEU,Germany,ep,1979-06-10,6,4,81,FDP,Freie Demokratische Partei,Free Democratic Party,5.9233,54,361,163,459,543
DEU,Germany,ep,1979-06-10,3.2,0,81,B90/Gru,Bündnis 90 / Die Grünen,Alliance 90 / Greens,2.9308,54,361,163,459,772
DEU,Germany,parliament,1980-10-05,42.9,218,497,SPD,Sozialdemokratische Partei Deutschlands,Social Democratic Party of Germany,3.6451,54,547,163,459,558
DEU,Germany,parliament,1980-10-05,34.2,174,497,CDU,Christlich Demokratische Union,Christian Democratic Union,6.2503,54,547,163,459,808
DEU,Germany,parliament,1980-10-05,10.6,53,497,FDP,Freie Demokratische Partei,Free Democratic Party,5.9233,54,547,163,459,543
DEU,Germany,parliament,1980-10-05,10.3,52,497,CSU,Christlich Soziale Union,Christian Social Union,7.2871,54,547,163,459,1180
DEU,Germany,parliament,1980-10-05,1.5,0,497,B90/Gru,Bündnis 90 / Die Grünen,Alliance 90 / Greens,2.9308,54,547,163,459,772
DEU,Germany,parliament,1983-03-06,38.2,193,498,SPD,Sozialdemokratische Partei Deutschlands,Social Democratic Party of Germany,3.6451,54,484,547,642,558
DEU,Germany,parliament,1983-03-06,38.2,191,498,CDU,Christlich Demokratische Union,Christian Democratic Union,6.2503,54,484,547,642,808
DEU,Germany,parliament,1983-03-06,10.6,53,498,CSU,Christlich Soziale Union,Christian Social Union,7.2871,54,484,547,642,1180
DEU,Germany,parliament,1983-03-06,7,34,498,FDP,Freie Demokratische Partei,Free Democratic Party,5.9233,54,484,547,642,543
DEU,Germany,parliament,1983-03-06,5.6,27,498,B90/Gru,Bündnis 90 / Die Grünen,Alliance 90 / Greens,2.9308,54,484,547,642,772
DEU,Germany,ep,1984-06-17,37.5,34,81,CDU,Christlich Demokratische Union,Christian Democratic Union,6.2503,54,610,484,346,808
DEU,Germany,ep,1984-06-17,37.4,33,81,SPD,Sozialdemokratische Partei Deutschlands,Social Democratic Party of Germany,3.6451,54,610,484,346,558
DEU,Germany,ep,1984-06-17,8.2,7,81,B90/Gru,Bündnis 90 / Die Grünen,Alliance 90 / Greens,2.9308,54,610,484,346,772
DEU,Germany,ep,1984-06-17,8.5,7,81,CSU,Christlich Soziale Union,Christian Social Union,7.2871,54,610,484,346,1180
DEU,Germany,ep,1984-06-17,4.8,0,81,FDP,Freie Demokratische Partei,Free Democratic Party,5.9233,54,610,484,346,543
DEU,Germany,parliament,1987-01-25,37.2,186,497,SPD,Sozialdemokratische Partei Deutschlands,Social Democratic Party of Germany,3.6451,54,588,484,346,558
DEU,Germany,parliament,1987-01-25,34.5,174,497,CDU,Christlich Demokratische Union,Christian Democratic Union,6.2503,54,588,484,346,808
DEU,Germany,parliament,1987-01-25,9.8,49,497,CSU,Christlich Soziale Union,Christian Social Union,7.2871,54,588,484,346,1180
DEU,Germany,parliament,1987-01-25,9.1,46,497,FDP,Freie Demokratische Partei,Free Democratic Party,5.9233,54,588,484,346,543
DEU,Germany,parliament,1987-01-25,8.3,42,497,B90/Gru,Bündnis 90 / Die Grünen,Alliance 90 / Greens,2.9308,54,588,484,346,772
DEU,Germany,ep,1989-06-18,37.3,31,81,SPD,Sozialdemokratische Partei Deutschlands,Social Democratic Party of Germany,3.6451,54,296,588,286,558
DEU,Germany,ep,1989-06-18,29.5,25,81,CDU,Christlich Demokratische Union,Christian Democratic Union,6.2503,54,296,588,286,808
DEU,Germany,ep,1989-06-18,8.4,8,81,B90/Gru,Bündnis 90 / Die Grünen,Alliance 90 / Greens,2.9308,54,296,588,286,772
DEU,Germany,ep,1989-06-18,8.2,7,81,CSU,Christlich Soziale Union,Christian Social Union,7.2871,54,296,588,286,1180
DEU,Germany,ep,1989-06-18,5.6,4,81,FDP,Freie Demokratische Partei,Free Democratic Party,5.9233,54,296,588,286,543
DEU,Germany,parliament,1990-12-02,36.7,268,662,CDU,Christlich Demokratische Union,Christian Democratic Union,6.2503,54,445,588,286,808
DEU,Germany,parliament,1990-12-02,33.5,239,662,SPD,Sozialdemokratische Partei Deutschlands,Social Democratic Party of Germany,3.6451,54,445,588,286,558
DEU,Germany,parliament,1990-12-02,11.1,79,662,FDP,Freie Demokratische Partei,Free Democratic Party,5.9233,54,445,588,286,543
DEU,Germany,parliament,1990-12-02,7.1,51,662,CSU,Christlich Soziale Union,Christian Social Union,7.2871,54,445,588,286,1180
DEU,Germany,parliament,1990-12-02,2.4,17,662,Li/PDS,Die Linke / PDS,The Left / PDS,1.2152,54,445,588,286,791
DEU,Germany,parliament,1990-12-02,1.2,8,662,B90/Gru,Bündnis 90 / Grüne – BürgerInnenbewegung,Alliance 90 / Greens -- Citizens' Movement,2.5,54,445,588,286,255
DEU,Germany,parliament,1990-12-02,3.8,0,662,B90/Gru,Bündnis 90 / Die Grünen,Alliance 90 / Greens,2.9308,54,445,588,286,772
DEU,Germany,ep,1994-06-12,32.2,40,99,SPD,Sozialdemokratische Partei Deutschlands,Social Democratic Party of Germany,3.6451,54,540,445,862,558
DEU,Germany,ep,1994-06-12,32,39,99,CDU,Christlich Demokratische Union,Christian Democratic Union,6.2503,54,540,445,862,808
DEU,Germany,ep,1994-06-12,10.1,12,99,B90/Gru,Bündnis 90 / Die Grünen,Alliance 90 / Greens,2.9308,54,540,445,862,772
DEU,Germany,ep,1994-06-12,6.8,8,99,CSU,Christlich Soziale Union,Christian Social Union,7.2871,54,540,445,862,1180
DEU,Germany,ep,1994-06-12,4.7,0,99,Li/PDS,Die Linke / PDS,The Left / PDS,1.2152,54,540,445,862,791
DEU,Germany,ep,1994-06-12,4.1,0,99,FDP,Freie Demokratische Partei,Free Democratic Party,5.9233,54,540,445,862,543
DEU,Germany,parliament,1994-10-16,36.4,252,672,SPD,Sozialdemokratische Partei Deutschlands,Social Democratic Party of Germany,3.6451,54,595,445,862,558
DEU,Germany,parliament,1994-10-16,34.2,244,672,CDU,Christlich Demokratische Union,Christian Democratic Union,6.2503,54,595,445,862,808
DEU,Germany,parliament,1994-10-16,7.3,50,672,CSU,Christlich Soziale Union,Christian Social Union,7.2871,54,595,445,862,1180
DEU,Germany,parliament,1994-10-16,7.3,49,672,B90/Gru,Bündnis 90 / Die Grünen,Alliance 90 / Greens,2.9308,54,595,445,862,772
DEU,Germany,parliament,1994-10-16,6.9,47,672,FDP,Freie Demokratische Partei,Free Democratic Party,5.9233,54,595,445,862,543
DEU,Germany,parliament,1994-10-16,4.4,30,672,Li/PDS,Die Linke / PDS,The Left / PDS,1.2152,54,595,445,862,791
DEU,Germany,parliament,1998-09-27,40.9,298,669,SPD,Sozialdemokratische Partei Deutschlands,Social Democratic Party of Germany,3.6451,54,679,595,778,558
DEU,Germany,parliament,1998-09-27,28.4,198,669,CDU,Christlich Demokratische Union,Christian Democratic Union,6.2503,54,679,595,778,808
DEU,Germany,parliament,1998-09-27,6.7,47,669,B90/Gru,Bündnis 90 / Die Grünen,Alliance 90 / Greens,2.9308,54,679,595,778,772
DEU,Germany,parliament,1998-09-27,6.7,47,669,CSU,Christlich Soziale Union,Christian Social Union,7.2871,54,679,595,778,1180
DEU,Germany,parliament,1998-09-27,6.2,43,669,FDP,Freie Demokratische Partei,Free Democratic Party,5.9233,54,679,595,778,543
DEU,Germany,parliament,1998-09-27,5.1,36,669,Li/PDS,Die Linke / PDS,The Left / PDS,1.2152,54,679,595,778,791
DEU,Germany,ep,1999-06-13,39.3,43,99,CDU,Christlich Demokratische Union,Christian Democratic Union,6.2503,54,417,679,107,808
DEU,Germany,ep,1999-06-13,30.7,33,99,SPD,Sozialdemokratische Partei Deutschlands,Social Democratic Party of Germany,3.6451,54,417,679,107,558
DEU,Germany,ep,1999-06-13,9.4,10,99,CSU,Christlich Soziale Union,Christian Social Union,7.2871,54,417,679,107,1180
DEU,Germany,ep,1999-06-13,6.4,7,99,B90/Gru,Bündnis 90 / Die Grünen,Alliance 90 / Greens,2.9308,54,417,679,107,772
DEU,Germany,ep,1999-06-13,5.8,6,99,Li/PDS,Die Linke / PDS,The Left / PDS,1.2152,54,417,679,107,791
DEU,Germany,ep,1999-06-13,3,0,99,FDP,Freie Demokratische Partei,Free Democratic Party,5.9233,54,417,679,107,543
DEU,Germany,parliament,2002-09-22,38.5,251,603,SPD,Sozialdemokratische Partei Deutschlands,Social Democratic Party of Germany,3.6451,54,385,679,107,558
DEU,Germany,parliament,2002-09-22,29.5,190,603,CDU,Christlich Demokratische Union,Christian Democratic Union,6.2503,54,385,679,107,808
DEU,Germany,parliament,2002-09-22,9,58,603,CSU,Christlich Soziale Union,Christian Social Union,7.2871,54,385,679,107,1180
DEU,Germany,parliament,2002-09-22,8.6,55,603,B90/Gru,Bündnis 90 / Die Grünen,Alliance 90 / Greens,2.9308,54,385,679,107,772
DEU,Germany,parliament,2002-09-22,7.4,47,603,FDP,Freie Demokratische Partei,Free Democratic Party,5.9233,54,385,679,107,543
DEU,Germany,parliament,2002-09-22,4,2,603,Li/PDS,Die Linke / PDS,The Left / PDS,1.2152,54,385,679,107,791
DEU,Germany,ep,2004-06-13,36.5,40,99,CDU,Christlich Demokratische Union,Christian Democratic Union,6.2503,54,18,385,529,808
DEU,Germany,ep,2004-06-13,21.5,23,99,SPD,Sozialdemokratische Partei Deutschlands,Social Democratic Party of Germany,3.6451,54,18,385,529,558
DEU,Germany,ep,2004-06-13,11.9,13,99,B90/Gru,Bündnis 90 / Die Grünen,Alliance 90 / Greens,2.9308,54,18,385,529,772
DEU,Germany,ep,2004-06-13,8,9,99,CSU,Christlich Soziale Union,Christian Social Union,7.2871,54,18,385,529,1180
DEU,Germany,ep,2004-06-13,6.1,7,99,FDP,Freie Demokratische Partei,Free Democratic Party,5.9233,54,18,385,529,543
DEU,Germany,ep,2004-06-13,6.1,7,99,Li/PDS,Die Linke / PDS,The Left / PDS,1.2152,54,18,385,529,791
DEU,Germany,parliament,2005-09-18,34.2,222,614,SPD,Sozialdemokratische Partei Deutschlands,Social Democratic Party of Germany,3.6451,54,118,385,529,558
DEU,Germany,parliament,2005-09-18,27.8,180,614,CDU,Christlich Demokratische Union,Christian Democratic Union,6.2503,54,118,385,529,808
DEU,Germany,parliament,2005-09-18,9.8,61,614,FDP,Freie Demokratische Partei,Free Democratic Party,5.9233,54,118,385,529,543
DEU,Germany,parliament,2005-09-18,8.7,54,614,Li/PDS,Die Linke / PDS,The Left / PDS,1.2152,54,118,385,529,791
DEU,Germany,parliament,2005-09-18,8.1,51,614,B90/Gru,Bündnis 90 / Die Grünen,Alliance 90 / Greens,2.9308,54,118,385,529,772
DEU,Germany,parliament,2005-09-18,7.4,46,614,CSU,Christlich Soziale Union,Christian Social Union,7.2871,54,118,385,529,1180
DEU,Germany,ep,2009-06-07,30.7,34,99,CDU,Christlich Demokratische Union,Christian Democratic Union,6.2503,54,231,118,85,808
DEU,Germany,ep,2009-06-07,20.8,23,99,SPD,Sozialdemokratische Partei Deutschlands,Social Democratic Party of Germany,3.6451,54,231,118,85,558
DEU,Germany,ep,2009-06-07,12.1,14,99,B90/Gru,Bündnis 90 / Die Grünen,Alliance 90 / Greens,2.9308,54,231,118,85,772
DEU,Germany,ep,2009-06-07,11,12,99,FDP,Freie Demokratische Partei,Free Democratic Party,5.9233,54,231,118,85,543
DEU,Germany,ep,2009-06-07,7.2,8,99,CSU,Christlich Soziale Union,Christian Social Union,7.2871,54,231,118,85,1180
DEU,Germany,ep,2009-06-07,7.5,8,99,Li/PDS,Die Linke / PDS,The Left / PDS,1.2152,54,231,118,85,791
DEU,Germany,parliament,2009-09-27,27.3,194,622,CDU,Christlich Demokratische Union,Christian Democratic Union,6.2503,54,93,118,85,808
DEU,Germany,parliament,2009-09-27,23,146,622,SPD,Sozialdemokratische Partei Deutschlands,Social Democratic Party of Germany,3.6451,54,93,118,85,558
DEU,Germany,parliament,2009-09-27,14.6,93,622,FDP,Freie Demokratische Partei,Free Democratic Party,5.9233,54,93,118,85,543
DEU,Germany,parliament,2009-09-27,11.9,76,622,Li/PDS,Die Linke / PDS,The Left / PDS,1.2152,54,93,118,85,791
DEU,Germany,parliament,2009-09-27,10.7,68,622,B90/Gru,Bündnis 90 / Die Grünen,Alliance 90 / Greens,2.9308,54,93,118,85,772
DEU,Germany,parliament,2009-09-27,6.5,45,622,CSU,Christlich Soziale Union,Christian Social Union,7.2871,54,93,118,85,1180
DEU,Germany,parliament,2013-09-22,34.1,255,631,CDU,Christlich Demokratische Union,Christian Democratic Union,6.2503,54,800,93,472,808
DEU,Germany,parliament,2013-09-22,25.7,193,631,SPD,Sozialdemokratische Partei Deutschlands,Social Democratic Party of Germany,3.6451,54,800,93,472,558
DEU,Germany,parliament,2013-09-22,8.6,64,631,Li/PDS,Die Linke / PDS,The Left / PDS,1.2152,54,800,93,472,791
DEU,Germany,parliament,2013-09-22,8.4,63,631,B90/Gru,Bündnis 90 / Die Grünen,Alliance 90 / Greens,2.9308,54,800,93,472,772
DEU,Germany,parliament,2013-09-22,7.4,56,631,CSU,Christlich Soziale Union,Christian Social Union,7.2871,54,800,93,472,1180
DEU,Germany,parliament,2013-09-22,4.8,0,631,FDP,Freie Demokratische Partei,Free Democratic Party,5.9233,54,800,93,472,543
DEU,Germany,parliament,2013-09-22,4.7,0,631,AfD,Alternative für Deutschland,Alternative for Germany,8.7,54,800,93,472,2253
DEU,Germany,ep,2014-05-25,30,29,96,CDU,Christlich Demokratische Union,Christian Democratic Union,6.2503,54,825,800,1071,808
DEU,Germany,ep,2014-05-25,27.3,27,96,SPD,Sozialdemokratische Partei Deutschlands,Social Democratic Party of Germany,3.6451,54,825,800,1071,558
DEU,Germany,ep,2014-05-25,10.7,11,96,B90/Gru,Bündnis 90 / Die Grünen,Alliance 90 / Greens,2.9308,54,825,800,1071,772
DEU,Germany,ep,2014-05-25,7.4,7,96,Li/PDS,Die Linke / PDS,The Left / PDS,1.2152,54,825,800,1071,791
DEU,Germany,ep,2014-05-25,7.1,7,96,AfD,Alternative für Deutschland,Alternative for Germany,8.7,54,825,800,1071,2253
DEU,Germany,ep,2014-05-25,5.3,5,96,CSU,Christlich Soziale Union,Christian Social Union,7.2871,54,825,800,1071,1180
DEU,Germany,ep,2014-05-25,3.4,3,96,FDP,Freie Demokratische Partei,Free Democratic Party,5.9233,54,825,800,1071,543
DEU,Germany,parliament,2017-09-24,26.8,200,709,CDU,Christlich Demokratische Union,Christian Democratic Union,6.2503,54,1016,800,1071,808
DEU,Germany,parliament,2017-09-24,20.5,153,709,SPD,Sozialdemokratische Partei Deutschlands,Social Democratic Party of Germany,3.6451,54,1016,800,1071,558
DEU,Germany,parliament,2017-09-24,12.6,94,709,AfD,Alternative für Deutschland,Alternative for Germany,8.7,54,1016,800,1071,2253
DEU,Germany,parliament,2017-09-24,10.7,80,709,FDP,Freie Demokratische Partei,Free Democratic Party,5.9233,54,1016,800,1071,543
DEU,Germany,parliament,2017-09-24,9.2,69,709,Li/PDS,Die Linke / PDS,The Left / PDS,1.2152,54,1016,800,1071,791
DEU,Germany,parliament,2017-09-24,8.9,67,709,B90/Gru,Bündnis 90 / Die Grünen,Alliance 90 / Greens,2.9308,54,1016,800,1071,772
DEU,Germany,parliament,2017-09-24,6.2,46,709,CSU,Christlich Soziale Union,Christian Social Union,7.2871,54,1016,800,1071,1180
